<?xml version="1.0" encoding="utf-8"?>
<!-- Generator: Adobe Illustrator 16.0.0, SVG Export Plug-In . SVG Version: 6.00 Build 0)  -->
<!DOCTYPE svg PUBLIC "-//W3C//DTD SVG 1.1//EN" "http://www.w3.org/Graphics/SVG/1.1/DTD/svg11.dtd">
<svg version="1.1" id="icons" xmlns="http://www.w3.org/2000/svg" xmlns:xlink="http://www.w3.org/1999/xlink" x="0px" y="0px"
	 width="64px" height="64px" viewBox="0 0 64 64" enable-background="new 0 0 64 64" xml:space="preserve">
<g>
	<path d="M0.018,59.999c0,0.553,0.447,1,1,1h48c0.553,0,1-0.447,1-1V25.001H63c0.553,0,1-0.447,1-1v-20c0-0.553-0.447-1-1-1H28
		c-0.553,0-1,0.447-1,1v7H3c-1.654,0-3,1.346-3,3v2c0,0.031,0.015,0.057,0.018,0.087V59.999z M48.018,58.999h-46V17.001H27v4H6.992
		c-0.553,0-1,0.447-1,1v19.998c0,0.553,0.447,1,1,1h36c0.553,0,1-0.447,1-1V25.001h4.025V58.999z M34.475,26.852
		c0.16,0.1,0.343,0.149,0.525,0.149c0.153,0,0.306-0.035,0.447-0.105l3.789-1.895h2.756v15.998h-34V23.001H27v1c0,0.553,0.447,1,1,1
		h6v1C34,26.348,34.18,26.669,34.475,26.852z M29,5.001h33v18H39c-0.155,0-0.309,0.036-0.447,0.105L36,24.383v-0.382
		c0-0.553-0.447-1-1-1h-6V5.001z M3,13.001h1.02c-0.552,0-0.994,0.447-0.994,1s0.452,1,1.005,1c0.552,0,1-0.447,1-1s-0.448-1-1-1
		H7.02c-0.552,0-0.994,0.447-0.994,1s0.452,1,1.005,1c0.552,0,1-0.447,1-1s-0.448-1-1-1h2.989c-0.552,0-0.994,0.447-0.994,1
		s0.452,1,1.005,1c0.552,0,1-0.447,1-1s-0.448-1-1-1H27v2H10.03h-3h-3H2v-1C2,13.449,2.448,13.001,3,13.001z"/>
	<path d="M6.992,46.999h36c0.553,0,1-0.447,1-1s-0.447-1-1-1h-36c-0.553,0-1,0.447-1,1S6.439,46.999,6.992,46.999z"/>
	<path d="M42.992,47.998H7c-0.553,0-1,0.447-1,1s0.447,1,1,1h35.992c0.553,0,1-0.447,1-1S43.545,47.998,42.992,47.998z"/>
	<path d="M24.975,51.001H7c-0.553,0-1,0.447-1,1s0.447,1,1,1h17.975c0.553,0,1-0.447,1-1S25.527,51.001,24.975,51.001z"/>
	<path d="M38.998,54h-5.98c-0.553,0-1,0.447-1,1s0.447,1,1,1h5.98c0.553,0,1-0.447,1-1S39.551,54,38.998,54z"/>
	<path d="M33.426,15.285l-0.266,1.547c-0.064,0.375,0.09,0.754,0.397,0.978c0.309,0.225,0.718,0.255,1.054,0.076L36,17.155
		l1.389,0.73c0.146,0.077,0.307,0.115,0.466,0.115c0.207,0,0.413-0.064,0.588-0.191c0.308-0.224,0.462-0.603,0.397-0.978
		l-0.266-1.547l1.123-1.094c0.273-0.266,0.371-0.663,0.254-1.025s-0.431-0.626-0.807-0.681l-1.553-0.227l-0.695-1.407
		c-0.336-0.684-1.457-0.684-1.793,0l-0.695,1.407l-1.553,0.227c-0.376,0.055-0.689,0.318-0.807,0.681s-0.02,0.76,0.254,1.025
		L33.426,15.285z M35.217,14.162c0.325-0.047,0.606-0.252,0.752-0.547L36,13.553l0.031,0.063c0.146,0.295,0.427,0.5,0.752,0.547
		l0.067,0.01l-0.048,0.047c-0.236,0.23-0.344,0.562-0.288,0.886l0.012,0.067l-0.061-0.031C36.32,15.063,36.16,15.025,36,15.025
		s-0.32,0.038-0.466,0.115l-0.061,0.031l0.012-0.067c0.056-0.324-0.052-0.655-0.288-0.886l-0.048-0.047L35.217,14.162z"/>
	<path d="M43.426,15.285l-0.266,1.547c-0.064,0.375,0.09,0.754,0.397,0.978c0.309,0.225,0.718,0.255,1.054,0.076L46,17.155
		l1.389,0.73c0.146,0.077,0.307,0.115,0.466,0.115c0.207,0,0.413-0.064,0.588-0.191c0.308-0.224,0.462-0.603,0.397-0.978
		l-0.266-1.547l1.123-1.094c0.273-0.266,0.371-0.663,0.254-1.025s-0.431-0.626-0.807-0.681l-1.553-0.227l-0.695-1.407
		c-0.336-0.684-1.457-0.684-1.793,0l-0.695,1.407l-1.553,0.227c-0.376,0.055-0.689,0.318-0.807,0.681s-0.02,0.76,0.254,1.025
		L43.426,15.285z M45.217,14.162c0.325-0.047,0.606-0.252,0.752-0.547L46,13.553l0.031,0.063c0.146,0.295,0.427,0.5,0.752,0.547
		l0.067,0.01l-0.048,0.047c-0.236,0.23-0.344,0.562-0.288,0.886l0.012,0.067l-0.061-0.031C46.32,15.063,46.16,15.025,46,15.025
		s-0.32,0.038-0.466,0.115l-0.061,0.031l0.012-0.067c0.056-0.324-0.052-0.655-0.288-0.886l-0.048-0.047L45.217,14.162z"/>
	<path d="M53.426,15.285l-0.266,1.547c-0.064,0.375,0.09,0.754,0.397,0.978c0.31,0.225,0.718,0.255,1.054,0.076L56,17.155
		l1.389,0.73c0.146,0.077,0.307,0.115,0.466,0.115c0.207,0,0.413-0.064,0.588-0.191c0.308-0.224,0.462-0.603,0.397-0.978
		l-0.266-1.547l1.123-1.094c0.273-0.266,0.371-0.663,0.254-1.025s-0.431-0.626-0.807-0.681l-1.553-0.227l-0.695-1.407
		c-0.336-0.684-1.457-0.684-1.793,0l-0.695,1.407l-1.553,0.227c-0.376,0.055-0.689,0.318-0.807,0.681s-0.02,0.76,0.254,1.025
		L53.426,15.285z M55.217,14.162c0.325-0.047,0.606-0.252,0.752-0.547L56,13.553l0.031,0.063c0.146,0.295,0.427,0.5,0.752,0.547
		l0.067,0.01l-0.048,0.047c-0.236,0.23-0.344,0.562-0.288,0.886l0.012,0.067l-0.061-0.031C56.32,15.063,56.16,15.025,56,15.025
		s-0.32,0.038-0.466,0.115l-0.061,0.031l0.012-0.067c0.056-0.324-0.052-0.655-0.288-0.886l-0.048-0.047L55.217,14.162z"/>
	<path d="M26,26.06v-0.061c0-0.553-0.447-1-1-1s-1,0.447-1,1v0.061c-4.493,0.5-7.999,4.316-8,8.939l0,0v2.002
		c-0.553,0.001-0.999,0.447-0.999,1s0.447,1,1,1H34c0.553,0,1-0.447,1-1s-0.447-0.999-0.999-1v-2.002
		c0-0.003-0.001-0.005-0.001-0.007C33.996,30.372,30.491,26.559,26,26.06z M25,28.001c3.859,0,7,3.14,7,6.999
		c0,0.002,0.001,0.003,0.001,0.005v1.996H18V35C18,31.141,21.141,28.001,25,28.001z"/>
	<path d="M25.006,31.005c2.202,0,3.994,1.792,3.994,3.994c0,0.553,0.447,1,1,1s1-0.447,1-1c0-3.306-2.688-5.994-5.994-5.994
		c-0.553,0-1,0.447-1,1S24.453,31.005,25.006,31.005z"/>
	<path d="M44.019,54c0-0.553-0.447-1-1-1h-1c-0.011,0-0.021,0.006-0.031,0.006c-0.065,0.002-0.128,0.024-0.192,0.039
		c-0.066,0.016-0.134,0.024-0.194,0.053c-0.009,0.004-0.02,0.003-0.029,0.008c-0.045,0.022-0.073,0.061-0.112,0.088
		c-0.061,0.042-0.121,0.079-0.17,0.133c-0.044,0.047-0.072,0.103-0.106,0.157c-0.033,0.055-0.07,0.104-0.093,0.165
		c-0.026,0.068-0.032,0.14-0.043,0.212c-0.007,0.048-0.028,0.09-0.028,0.14c0,0.011,0.006,0.02,0.006,0.03
		c0.002,0.066,0.024,0.13,0.04,0.196c0.016,0.065,0.023,0.131,0.052,0.19c0.004,0.01,0.003,0.021,0.008,0.03l0.363,0.727
		c-0.275,0.178-0.469,0.474-0.469,0.826c0,0.553,0.447,1,1,1h1l0,0c0.001,0,0.001,0,0.001,0c0.002,0,0.004-0.001,0.006-0.001
		c0.148-0.001,0.286-0.039,0.413-0.098c0.009-0.005,0.019-0.003,0.027-0.007c0.045-0.022,0.073-0.061,0.113-0.088
		c0.06-0.042,0.12-0.079,0.169-0.133c0.044-0.047,0.072-0.103,0.106-0.157c0.033-0.055,0.07-0.104,0.094-0.166
		c0.025-0.067,0.032-0.139,0.042-0.211c0.007-0.048,0.028-0.09,0.028-0.14c0-0.011-0.006-0.02-0.006-0.03
		c-0.002-0.066-0.024-0.13-0.04-0.195s-0.023-0.132-0.052-0.192c-0.004-0.009-0.003-0.02-0.008-0.029l-0.363-0.727
		C43.825,54.648,44.019,54.353,44.019,54z"/>
</g>
</svg>
