<?xml version="1.0" encoding="utf-8"?>
<!-- Generator: Adobe Illustrator 16.0.0, SVG Export Plug-In . SVG Version: 6.00 Build 0)  -->
<!DOCTYPE svg PUBLIC "-//W3C//DTD SVG 1.1//EN" "http://www.w3.org/Graphics/SVG/1.1/DTD/svg11.dtd">
<svg version="1.1" id="icons" xmlns="http://www.w3.org/2000/svg" xmlns:xlink="http://www.w3.org/1999/xlink" x="0px" y="0px"
	 width="64px" height="64px" viewBox="0 0 64 64" enable-background="new 0 0 64 64" xml:space="preserve">
<g>
	<path d="M61,3.498H3c-1.654,0-3,1.346-3,3v53.004c0,0.553,0.447,1,1,1h62c0.553,0,1-0.447,1-1V6.498
		C64,4.844,62.654,3.498,61,3.498z M58,58.502H44V47.508h14V58.502z M59,45.508H43c-0.553,0-1,0.447-1,1v11.994h-1V46.508
		c0-0.553-0.447-1-1-1H24c-0.553,0-1,0.447-1,1v11.994h-1V46.508c0-0.553-0.447-1-1-1H5c-0.553,0-1,0.447-1,1v11.994H2V9.498h60
		v49.004h-2V46.508C60,45.955,59.553,45.508,59,45.508z M39,58.502H25V47.508h14V58.502z M20,58.502H6V47.508h14V58.502z M3,5.498
		h1.02c-0.552,0-0.994,0.447-0.994,1s0.452,1,1.005,1c0.552,0,1-0.447,1-1s-0.448-1-1-1h2.988c-0.552,0-0.994,0.447-0.994,1
		s0.452,1,1.005,1c0.552,0,1-0.447,1-1s-0.448-1-1-1h2.992c-0.552,0-0.994,0.447-0.994,1s0.452,1,1.005,1c0.552,0,1-0.447,1-1
		s-0.448-1-1-1H61c0.552,0,1,0.448,1,1v1H10.032H7.029H4.03H2v-1C2,5.946,2.448,5.498,3,5.498z"/>
	<path d="M40,11.498H5.001c-0.553,0-1,0.447-1,1v29.998c0,0.553,0.447,1,1,1H40c0.553,0,1-0.447,1-1V12.498
		C41,11.945,40.553,11.498,40,11.498z M39,41.496H6.001V13.498H39V41.496z"/>
	<path d="M44.001,21.5h14.998c0.553,0,1-0.447,1-1s-0.447-1-1-1H44.001c-0.553,0-1,0.447-1,1S43.448,21.5,44.001,21.5z"/>
	<path d="M44.001,18.5h14.998c0.553,0,1-0.447,1-1s-0.447-1-1-1H44.001c-0.553,0-1,0.447-1,1S43.448,18.5,44.001,18.5z"/>
	<path d="M44.001,24.5h6.99c0.553,0,1-0.447,1-1s-0.447-1-1-1h-6.99c-0.553,0-1,0.447-1,1S43.448,24.5,44.001,24.5z"/>
	<path d="M44.001,29.498h6.99c0.553,0,1-0.447,1-1s-0.447-1-1-1h-6.99c-0.553,0-1,0.447-1,1S43.448,29.498,44.001,29.498z"/>
	<path d="M60,33.496c0-0.553-0.447-1-1-1H44.001c-0.553,0-1,0.447-1,1v3c0,0.553,0.447,1,1,1H59c0.553,0,1-0.447,1-1V33.496z
		 M58,35.496H45.001v-1H58V35.496z"/>
	<path d="M56,27.5c0-0.553-0.447-1-1-1h-0.999c-0.012,0-0.021,0.006-0.032,0.007c-0.063,0.002-0.124,0.023-0.188,0.037
		c-0.067,0.016-0.136,0.024-0.198,0.054c-0.009,0.004-0.02,0.003-0.029,0.008c-0.045,0.022-0.073,0.061-0.112,0.088
		c-0.061,0.042-0.121,0.079-0.17,0.133c-0.044,0.047-0.072,0.103-0.106,0.157c-0.033,0.055-0.07,0.104-0.093,0.165
		c-0.026,0.068-0.032,0.14-0.043,0.212c-0.007,0.048-0.028,0.09-0.028,0.14c0,0.011,0.006,0.02,0.006,0.03
		c0.002,0.066,0.024,0.13,0.04,0.196c0.016,0.065,0.023,0.131,0.052,0.19c0.004,0.01,0.003,0.021,0.008,0.03l0.362,0.726
		c-0.275,0.178-0.468,0.473-0.468,0.825c0,0.553,0.447,1,1,1H55l0,0c0.001,0,0.001,0,0.001,0c0.002,0,0.004-0.001,0.006-0.001
		c0.148-0.001,0.286-0.039,0.413-0.098c0.009-0.005,0.019-0.003,0.027-0.007c0.045-0.022,0.073-0.061,0.113-0.088
		c0.06-0.042,0.12-0.079,0.169-0.133c0.044-0.047,0.072-0.103,0.106-0.157c0.033-0.055,0.07-0.104,0.094-0.166
		c0.025-0.067,0.031-0.139,0.042-0.211C55.979,29.59,56,29.548,56,29.498c0-0.011-0.006-0.02-0.006-0.03
		c-0.002-0.066-0.024-0.13-0.04-0.195s-0.023-0.132-0.052-0.192c-0.004-0.009-0.003-0.02-0.008-0.029l-0.362-0.726
		C55.807,28.147,56,27.853,56,27.5z"/>
	<path d="M9.999,35.506L9.999,35.506c0.002,1.653,1.348,2.998,3.001,2.998h19.998c1.647,0,2.987-1.336,2.998-2.98
		c0-0.006,0.004-0.012,0.004-0.018l0,0c0.553,0,1-0.447,1-1s-0.447-1-1-1h-1.001v-1.992c0-0.004,0.002-0.006,0.002-0.01
		c0-5.808-4.147-10.662-9.635-11.764c0.072-0.234,0.123-0.479,0.123-0.736c0-1.379-1.121-2.5-2.5-2.5s-2.5,1.121-2.5,2.5
		c0,0.26,0.051,0.505,0.124,0.74c-5.477,1.109-9.612,5.96-9.612,11.76v2.002H9.999c-0.553,0-1,0.447-1,1S9.446,35.506,9.999,35.506z
		 M33.998,35.506c-0.002,0.551-0.449,0.998-1,0.998H13c-0.551,0-0.998-0.447-1-0.998h0.001H33.998z M22.989,18.504
		c0.275,0,0.5,0.225,0.5,0.5s-0.225,0.5-0.5,0.5s-0.5-0.225-0.5-0.5S22.714,18.504,22.989,18.504z M13.001,31.504
		c0-5.514,4.486-10,10-10c5.511,0,9.995,4.482,10,9.992c0,0.003-0.002,0.005-0.002,0.008v2.002H13.001V31.504z"/>
	<path d="M23.001,22.504c-0.553,0-1,0.447-1,1s0.447,1,1,1c3.859,0,7,3.141,7,7c0,0.553,0.447,1,1,1s1-0.447,1-1
		C32.001,26.541,27.964,22.504,23.001,22.504z"/>
	<path d="M27,57.504h10c0.553,0,1-0.447,1-1s-0.447-1-1-1v-1c0-2.414-1.721-4.435-4-4.898v-0.102c0-0.553-0.447-1-1-1s-1,0.447-1,1
		v0.102c-2.279,0.464-4,2.484-4,4.898v1c-0.553,0-1,0.447-1,1S26.447,57.504,27,57.504z M32,51.504c1.654,0,3,1.346,3,3v1h-6v-1
		C29,52.85,30.346,51.504,32,51.504z"/>
	<path d="M46,57.504h10c0.553,0,1-0.447,1-1s-0.447-1-1-1v-1c0-2.414-1.721-4.435-4-4.898v-0.102c0-0.553-0.447-1-1-1s-1,0.447-1,1
		v0.102c-2.279,0.464-4,2.484-4,4.898v1c-0.553,0-1,0.447-1,1S45.447,57.504,46,57.504z M51,51.504c1.654,0,3,1.346,3,3v1h-6v-1
		C48,52.85,49.346,51.504,51,51.504z"/>
	<path d="M8,57.504h10c0.553,0,1-0.447,1-1s-0.447-1-1-1v-1c0-2.414-1.721-4.435-4-4.898v-0.102c0-0.553-0.447-1-1-1s-1,0.447-1,1
		v0.102c-2.279,0.464-4,2.484-4,4.898v1c-0.553,0-1,0.447-1,1S7.447,57.504,8,57.504z M13,51.504c1.654,0,3,1.346,3,3v1h-6v-1
		C10,52.85,11.346,51.504,13,51.504z"/>
</g>
</svg>
