<?xml version="1.0" encoding="utf-8"?>
<!-- Generator: Adobe Illustrator 16.0.0, SVG Export Plug-In . SVG Version: 6.00 Build 0)  -->
<!DOCTYPE svg PUBLIC "-//W3C//DTD SVG 1.1//EN" "http://www.w3.org/Graphics/SVG/1.1/DTD/svg11.dtd">
<svg version="1.1" id="icons" xmlns="http://www.w3.org/2000/svg" xmlns:xlink="http://www.w3.org/1999/xlink" x="0px" y="0px"
	 width="64px" height="64px" viewBox="0 0 64 64" enable-background="new 0 0 64 64" xml:space="preserve">
<g>
	<path d="M2,61.998h32c1.103,0,2-0.897,2-2v-6c0-4.411-3.588-7.999-7.999-8l0,0L25,45.996v-3.893c4.178-2.425,7-6.938,7-12.105v-11
		c0-3.519-2.613-6.432-6-6.92v-3.08c0-0.553-0.447-1-1-1h-8c-7.169,0-13.001,5.832-13.001,13C3.999,21,4,21.001,4,21.003v4.99
		c0,0.003,0,0.007,0,0.01v3.995c0,5.169,2.822,9.681,7,12.105l0.001,3.893l-2.99,0.002c-0.004,0-0.007-0.002-0.01-0.002
		c-2.139,0-4.148,0.832-5.659,2.342c-1.51,1.511-2.342,3.52-2.341,5.658l-0.001,6v0.001v0.001C0,61.101,0.897,61.998,2,61.998z
		 M17,9.998h7v3c0,0.553,0.447,1,1,1c2.757,0,5,2.243,5,5v4.586l-1.293-1.293c-0.003-0.003-0.008-0.004-0.011-0.007
		c-0.064-0.063-0.144-0.104-0.221-0.147c-0.037-0.02-0.067-0.052-0.105-0.066c-0.067-0.027-0.141-0.029-0.212-0.041
		c-0.055-0.01-0.107-0.03-0.163-0.03c-0.046,0-0.091,0.02-0.138,0.026c-0.083,0.013-0.167,0.021-0.246,0.054
		c-0.004,0.002-0.008,0.001-0.012,0.003c-0.044,0.019-4.439,1.916-9.6,1.916c-5.141,0-9.556-1.897-9.6-1.916
		c-0.004-0.002-0.008-0.001-0.012-0.003c-0.093-0.039-0.191-0.052-0.291-0.062C8.067,22.014,8.037,22,8.007,21.999
		c-0.079,0-0.155,0.024-0.233,0.043c-0.047,0.012-0.098,0.01-0.143,0.028c-0.042,0.016-0.075,0.05-0.114,0.072
		c-0.075,0.042-0.151,0.081-0.213,0.142c-0.003,0.003-0.008,0.004-0.011,0.007L6,23.584v-2.586c0-0.001-0.001-0.003-0.001-0.004
		C6.001,14.931,10.935,9.998,17,9.998z M6,29.998v-3.587l2.241-2.24c1.474,0.558,5.313,1.827,9.759,1.827s8.285-1.27,9.759-1.827
		L30,26.412v3.586c0,6.617-5.383,12-12,12S6,36.615,6,29.998z M18,43.998c1.764,0,3.444-0.342,5-0.939v3.402l-2.147,1.434
		l-2.535-0.849c-0.038-0.013-0.075-0.006-0.113-0.014c-0.068-0.015-0.135-0.025-0.206-0.025c-0.067,0-0.131,0.011-0.196,0.024
		c-0.04,0.008-0.079,0.001-0.119,0.015l-2.534,0.848l-2.147-1.433L13,43.06C14.556,43.656,16.237,43.998,18,43.998z M3.757,49.752
		c1.13-1.13,2.635-1.754,4.236-1.756c0.003,0,0.005,0.002,0.008,0.002c0,0,0,0,0.001,0l3.695-0.002l2.747,1.834
		c0.051,0.033,0.105,0.052,0.159,0.074c0.034,0.016,0.065,0.036,0.101,0.048c0.097,0.029,0.196,0.046,0.295,0.046c0,0,0,0,0.001,0
		l0,0c0.001,0,0.002,0,0.003,0c0.096-0.001,0.19-0.02,0.282-0.047c0.011-0.003,0.021-0.001,0.032-0.005L18,49.049l2.683,0.897
		c0.011,0.004,0.021,0.002,0.033,0.005c0.091,0.027,0.186,0.046,0.281,0.047c0.001,0,0.002,0,0.003,0l0,0c0.001,0,0.001,0,0.001,0
		c0.099,0,0.198-0.017,0.295-0.047c0.035-0.011,0.065-0.031,0.1-0.046c0.054-0.023,0.109-0.042,0.159-0.075l2.748-1.834l3.696,0.002
		c0.001,0,0.001,0,0.001,0c3.309,0,6,2.691,6,6v6H2v-0.001v-0.001l0.001-6C2.001,52.392,2.624,50.885,3.757,49.752z"/>
	<path d="M18.03,53.998c0.552,0,1-0.447,1-1s-0.448-1-1-1H18.02c-0.552,0-0.994,0.447-0.994,1S17.478,53.998,18.03,53.998z"/>
	<path d="M18.03,57.998c0.552,0,1-0.447,1-1s-0.448-1-1-1H18.02c-0.552,0-0.994,0.447-0.994,1S17.478,57.998,18.03,57.998z"/>
	<path d="M40.51,29.872c0.152,0.087,0.322,0.13,0.492,0.13c0.179,0,0.356-0.048,0.515-0.143l4.762-2.857H62c0.553,0,1-0.447,1-1v-23
		c0-0.553-0.447-1-1-1H38.002c-0.553,0-1,0.447-1,1v23c0,0.553,0.447,1,1,1h2v2C40.002,29.362,40.195,29.694,40.51,29.872z
		 M39.002,25.002v-21H61v21H46.001c-0.182,0-0.359,0.049-0.515,0.143l-3.484,2.091v-1.233c0-0.553-0.447-1-1-1H39.002z"/>
	<path d="M63,36.998h-4v-2c0-2.757-2.243-5-5-5c-0.915,0-1.762,0.265-2.5,0.695c-0.738-0.431-1.585-0.695-2.5-0.695
		c-2.757,0-5,2.243-5,5v2h-5c-0.553,0-1,0.447-1,1v23c0,0.553,0.447,1,1,1h19h5c0.553,0,1-0.447,1-1v-23
		C64,37.445,63.553,36.998,63,36.998z M57,34.998v2h-3v-2c0-1.059-0.336-2.038-0.899-2.847c0.286-0.091,0.584-0.153,0.899-0.153
		C55.654,31.998,57,33.344,57,34.998z M51,34.998c0-0.61,0.186-1.178,0.5-1.652c0.314,0.475,0.5,1.042,0.5,1.652v2h-1V34.998z
		 M46,34.998c0-1.654,1.346-3,3-3c0.315,0,0.613,0.063,0.899,0.153C49.336,32.96,49,33.939,49,34.998v2h-3V34.998z M40,38.998h17v21
		H40V38.998z M62,59.998h-3v-21h3V59.998z"/>
	<path d="M45.771,16.011l-0.658,3.821c-0.064,0.375,0.089,0.755,0.397,0.979c0.174,0.127,0.381,0.191,0.588,0.191
		c0.159,0,0.318-0.038,0.465-0.114l3.438-1.805l3.43,1.804c0.337,0.178,0.745,0.148,1.054-0.075
		c0.308-0.224,0.462-0.603,0.397-0.978l-0.652-3.822l2.777-2.71c0.272-0.266,0.37-0.663,0.253-1.025
		c-0.118-0.361-0.431-0.625-0.808-0.68l-3.839-0.558L50.897,7.56c-0.336-0.684-1.457-0.684-1.793,0l-1.716,3.479l-3.839,0.558
		c-0.377,0.055-0.689,0.318-0.808,0.68c-0.117,0.362-0.02,0.76,0.253,1.025L45.771,16.011z M48.196,12.942
		c0.326-0.047,0.607-0.252,0.753-0.547l1.052-2.133l1.052,2.133c0.146,0.295,0.427,0.5,0.753,0.547l2.354,0.342l-1.703,1.662
		c-0.235,0.229-0.343,0.561-0.287,0.884l0.4,2.345l-2.104-1.106c-0.146-0.077-0.306-0.115-0.466-0.115
		c-0.159,0-0.319,0.038-0.465,0.114l-2.107,1.107l0.403-2.343c0.056-0.324-0.052-0.656-0.287-0.886l-1.703-1.662L48.196,12.942z"/>
	<path d="M48.002,42.999c-0.553,0-1,0.447-1,1v0.999H46.5v-0.999c0-0.553-0.447-1-1-1s-1,0.447-1,1v0.999h-0.499v-0.999
		c0-0.553-0.447-1-1-1s-1,0.447-1,1v3.999C42.001,48,42,48.001,42,48.003C42,49.104,42.896,50,43.997,50h0.504v7.001
		c0,0.553,0.447,1,1,1s1-0.447,1-1V50h0.489c0.004,0,0.006,0.002,0.01,0.002c1.103,0,2.001-0.897,2.002-2v-0.001v-4.002
		C49.002,43.446,48.555,42.999,48.002,42.999z M47.002,46.998v0.994C47.002,47.995,47,47.997,47,48h-2.999v-1.002H47.002z"/>
	<path d="M51.007,42.997c-0.002,0-0.004-0.001-0.006-0.001c-0.001,0-0.001,0-0.002,0s-0.003,0-0.004,0c-0.553,0-1,0.447-1,1
		c0,0.011,0.006,0.019,0.006,0.029v12.976c0,0.553,0.447,1,1,1s1-0.447,1-1v-4.005h2c0.553,0,1-0.447,1-1v-4.994
		C55.001,44.797,53.21,43.004,51.007,42.997z M52.001,45.276c0.595,0.349,1,0.987,1,1.726v3.994h-1V45.276z"/>
</g>
</svg>
