<?xml version="1.0" encoding="utf-8"?>
<!-- Generator: Adobe Illustrator 16.0.0, SVG Export Plug-In . SVG Version: 6.00 Build 0)  -->
<!DOCTYPE svg PUBLIC "-//W3C//DTD SVG 1.1//EN" "http://www.w3.org/Graphics/SVG/1.1/DTD/svg11.dtd">
<svg version="1.1" id="icons" xmlns="http://www.w3.org/2000/svg" xmlns:xlink="http://www.w3.org/1999/xlink" x="0px" y="0px"
	 width="64px" height="64px" viewBox="0 0 64 64" enable-background="new 0 0 64 64" xml:space="preserve">
<g>
	<path d="M52.019,37.006c0-0.271-0.107-0.517-0.282-0.696l-1.907-2.863c-0.186-0.278-0.498-0.445-0.832-0.445h-2.265
		c-0.909-1.302-2.22-2.25-3.732-2.698v-0.306c0-0.553-0.447-1-1-1h-4v-1.61c2.681-1.557,4.701-4.116,5.551-7.166
		c0.007-0.03,0.02-0.058,0.022-0.088c0.27-0.997,0.427-2.04,0.427-3.12c0-0.001,0-0.001,0-0.001v-5.003
		c0-0.002-0.001-0.004-0.001-0.005C43.999,12.002,44,12,44,11.998c0-6.617-5.383-12-12-12s-12,5.383-12,12
		c0,0.002,0.001,0.004,0.001,0.006c0,0.001-0.001,0.003-0.001,0.005v5.002l0,0c0,1.082,0.157,2.125,0.427,3.122
		c0.004,0.03,0.016,0.058,0.022,0.088c0.849,3.05,2.87,5.609,5.551,7.166v1.61h-4c-0.553,0-1,0.447-1,1v0.306
		c-1.513,0.448-2.823,1.396-3.732,2.698H15c-0.334,0-0.646,0.167-0.832,0.445l-2.002,3.005c-0.024,0.037-0.038,0.078-0.057,0.117
		c-0.014,0.027-0.028,0.052-0.039,0.08c-0.043,0.109-0.066,0.224-0.068,0.34c0,0.006-0.004,0.012-0.004,0.018v25.996
		c0,0.553,0.447,1,1,1h38.001c0.553,0,1-0.447,1-1v-7.988c0-0.005,0.003-0.01,0.003-0.015s-0.003-0.01-0.003-0.015v-4.971
		c0-0.005,0.003-0.01,0.003-0.015s-0.003-0.01-0.003-0.015v-4.971c0-0.005,0.003-0.01,0.003-0.015s-0.003-0.01-0.003-0.015v-7.882
		C52.002,37.069,52.019,37.04,52.019,37.006z M43.984,33.001H43v-0.572C43.35,32.581,43.679,32.773,43.984,33.001z M41,30.997v2.004
		h-3v-2.004H41z M28,33.001v-0.99h8v0.99H28z M25.583,24.669c1.669,0.77,3.782,1.341,6.417,1.341s4.748-0.571,6.417-1.341
		C36.679,26.128,34.441,27.01,32,27.01S27.321,26.128,25.583,24.669z M30,9.996h4v1.013h-4V9.996z M28.99,13.009
		c0.004,0,0.006,0.002,0.01,0.002s0.006-0.002,0.01-0.002H42v4.001c0,0.904-0.132,1.777-0.357,2.611
		C41.142,20.336,38.268,24.01,32,24.01c-6.285,0-9.126-3.643-9.642-4.388C22.132,18.787,22,17.915,22,17.01v-4.001H28.99z M32,1.998
		c5.18,0,9.451,3.96,9.95,9.011H36V8.996c0-0.553-0.447-1-1-1h-6c-0.553,0-1,0.447-1,1v2.013h-5.95
		C22.549,5.958,26.82,1.998,32,1.998z M32,29.01c1.404,0,2.747-0.255,4-0.7v1.701h-8V28.31C29.253,28.755,30.596,29.01,32,29.01z
		 M26,33.001h-3v-2.004h3V33.001z M21,32.429v0.572h-0.984C20.321,32.773,20.65,32.581,21,32.429z M15.535,35.001h11.402
		c0.021,0.001,0.04,0.013,0.063,0.013s0.041-0.012,0.063-0.013h9.875c0.021,0.001,0.04,0.013,0.063,0.013s0.041-0.012,0.063-0.013
		h11.399l0.669,1.005H14.866L15.535,35.001z M13.998,62.002v-6.003H16c0.553,0,1-0.447,1-1s-0.447-1-1-1h-2.002v-3H16
		c0.553,0,1-0.447,1-1s-0.447-1-1-1h-2.002v-3H16c0.553,0,1-0.447,1-1s-0.447-1-1-1h-2.002v-5.993h36.001v5.993H48
		c-0.553,0-1,0.447-1,1s0.447,1,1,1h1.999v3H48c-0.553,0-1,0.447-1,1s0.447,1,1,1h1.999v3H48c-0.553,0-1,0.447-1,1s0.447,1,1,1
		h1.999v6.003H13.998z"/>
	<path d="M31.002,40.995c-0.553,0-1,0.447-1,1v0.999H29.5v-0.999c0-0.553-0.447-1-1-1s-1,0.447-1,1v0.999h-0.499v-0.999
		c0-0.553-0.447-1-1-1s-1,0.447-1,1v3.999c0,0.002-0.001,0.003-0.001,0.005c0,1.102,0.896,1.997,1.997,1.997h0.504V58
		c0,0.553,0.447,1,1,1s1-0.447,1-1V47.996h0.489c0.004,0,0.006,0.002,0.01,0.002c1.103,0,2.001-0.897,2.002-2v-0.001v-4.002
		C32.002,41.442,31.555,40.995,31.002,40.995z M30.002,44.994v0.994c0,0.003-0.002,0.005-0.002,0.008h-2.999v-1.002H30.002z"/>
	<path d="M35.008,40.993c-0.002,0-0.004-0.001-0.006-0.001c-0.001,0-0.001,0-0.002,0s-0.003,0-0.004,0c-0.553,0-1,0.447-1,1
		c0,0.011,0.006,0.019,0.006,0.029V58c0,0.553,0.447,1,1,1s1-0.447,1-1v-6.007h2c0.553,0,1-0.447,1-1v-5.995
		C39.002,42.793,37.211,41,35.008,40.993z M36.002,43.272c0.595,0.349,1,0.987,1,1.726v4.995h-1V43.272z"/>
</g>
</svg>
