<?xml version="1.0" encoding="utf-8"?>
<!-- Generator: Adobe Illustrator 16.0.0, SVG Export Plug-In . SVG Version: 6.00 Build 0)  -->
<!DOCTYPE svg PUBLIC "-//W3C//DTD SVG 1.1//EN" "http://www.w3.org/Graphics/SVG/1.1/DTD/svg11.dtd">
<svg version="1.1" id="icons" xmlns="http://www.w3.org/2000/svg" xmlns:xlink="http://www.w3.org/1999/xlink" x="0px" y="0px"
	 width="64px" height="64px" viewBox="0 0 64 64" enable-background="new 0 0 64 64" xml:space="preserve">
<g>
	<path d="M41.006,33.014c0-0.553-0.447-1-1-1h-2c-0.032,0-0.059,0.016-0.09,0.019c-0.066,0.006-0.129,0.02-0.194,0.039
		c-0.066,0.02-0.128,0.044-0.188,0.076c-0.027,0.015-0.058,0.017-0.083,0.034c-0.027,0.019-0.042,0.047-0.066,0.066
		c-0.055,0.045-0.102,0.092-0.145,0.146c-0.041,0.05-0.075,0.099-0.104,0.154s-0.052,0.111-0.07,0.172
		c-0.021,0.067-0.034,0.132-0.041,0.201c-0.003,0.032-0.019,0.06-0.019,0.093c0,0.031,0.015,0.058,0.018,0.088
		c0.006,0.067,0.02,0.131,0.04,0.197c0.02,0.066,0.044,0.127,0.076,0.187c0.015,0.026,0.017,0.057,0.034,0.083l0.964,1.445h-0.132
		c-0.553,0-1,0.447-1,1s0.447,1,1,1h2l0,0c0.001,0,0.001,0,0.001,0c0.116,0,0.231-0.027,0.344-0.069
		c0.036-0.014,0.068-0.031,0.103-0.049c0.036-0.018,0.073-0.027,0.107-0.05c0.027-0.019,0.042-0.047,0.066-0.066
		c0.055-0.045,0.102-0.092,0.145-0.146c0.041-0.05,0.075-0.099,0.104-0.154s0.052-0.111,0.07-0.172
		c0.021-0.067,0.034-0.132,0.041-0.201c0.003-0.032,0.019-0.06,0.019-0.093c0-0.031-0.015-0.058-0.018-0.088
		c-0.006-0.067-0.02-0.131-0.04-0.197c-0.02-0.066-0.044-0.127-0.076-0.187c-0.015-0.027-0.017-0.057-0.034-0.083l-0.964-1.445
		h0.132C40.559,34.014,41.006,33.566,41.006,33.014z"/>
	<path d="M35.006,34.014h-2.998c-0.553,0-1,0.447-1,1s0.447,1,1,1h2.998c0.553,0,1-0.447,1-1S35.559,34.014,35.006,34.014z"/>
	<path d="M13.996,36.014h7.002c0.553,0,1-0.447,1-1s-0.447-1-1-1h-7.002c-0.553,0-1,0.447-1,1S13.443,36.014,13.996,36.014z"/>
	<path d="M41.006,40.017c0-0.553-0.447-1-1-1h-2c-0.032,0-0.06,0.016-0.091,0.019c-0.066,0.006-0.128,0.02-0.192,0.038
		c-0.067,0.021-0.129,0.045-0.189,0.077c-0.026,0.015-0.057,0.017-0.082,0.034c-0.027,0.019-0.042,0.047-0.066,0.066
		c-0.055,0.044-0.102,0.092-0.145,0.146c-0.041,0.05-0.075,0.1-0.104,0.154c-0.029,0.056-0.052,0.111-0.07,0.172
		c-0.021,0.067-0.034,0.132-0.041,0.201c-0.003,0.032-0.019,0.06-0.019,0.093c0,0.031,0.015,0.058,0.018,0.088
		c0.006,0.067,0.02,0.132,0.04,0.197c0.02,0.066,0.044,0.127,0.076,0.187c0.015,0.026,0.017,0.057,0.034,0.083l0.964,1.445h-0.132
		c-0.553,0-1,0.447-1,1s0.447,1,1,1h2l0,0c0.001,0,0.001,0,0.001,0c0.116,0,0.231-0.028,0.344-0.069
		c0.036-0.014,0.068-0.031,0.103-0.049c0.036-0.018,0.073-0.027,0.107-0.05c0.027-0.019,0.042-0.047,0.066-0.066
		c0.055-0.044,0.102-0.092,0.145-0.146c0.041-0.05,0.075-0.1,0.104-0.154c0.029-0.056,0.052-0.111,0.07-0.172
		c0.021-0.067,0.034-0.132,0.041-0.201c0.003-0.032,0.019-0.06,0.019-0.093c0-0.031-0.015-0.058-0.018-0.088
		c-0.006-0.067-0.02-0.131-0.04-0.197c-0.02-0.066-0.044-0.127-0.076-0.187c-0.015-0.027-0.017-0.057-0.034-0.083l-0.964-1.445
		h0.132C40.559,41.017,41.006,40.569,41.006,40.017z"/>
	<path d="M35.006,41.017h-2.998c-0.553,0-1,0.447-1,1s0.447,1,1,1h2.998c0.553,0,1-0.447,1-1S35.559,41.017,35.006,41.017z"/>
	<path d="M13.996,43.017h10.006c0.553,0,1-0.447,1-1s-0.447-1-1-1H13.996c-0.553,0-1,0.447-1,1S13.443,43.017,13.996,43.017z"/>
	<path d="M13.996,48.001h26.01c0.553,0,1-0.447,1-1s-0.447-1-1-1h-26.01c-0.553,0-1,0.447-1,1S13.443,48.001,13.996,48.001z"/>
	<path d="M41.006,51.009c0-0.553-0.447-1-1-1h-2c-0.031,0-0.058,0.015-0.088,0.018c-0.067,0.006-0.131,0.02-0.197,0.04
		c-0.066,0.02-0.127,0.044-0.187,0.076c-0.027,0.015-0.057,0.017-0.083,0.034c-0.027,0.019-0.042,0.047-0.066,0.066
		c-0.055,0.044-0.102,0.092-0.145,0.146c-0.041,0.05-0.075,0.1-0.104,0.154c-0.029,0.056-0.052,0.111-0.07,0.172
		c-0.021,0.067-0.034,0.132-0.041,0.201c-0.003,0.032-0.019,0.06-0.019,0.093c0,0.031,0.015,0.058,0.018,0.088
		c0.006,0.067,0.02,0.132,0.04,0.197c0.02,0.066,0.044,0.127,0.076,0.187c0.015,0.026,0.017,0.057,0.034,0.083l0.964,1.445h-0.132
		c-0.553,0-1,0.447-1,1s0.447,1,1,1h2l0,0c0.001,0,0.001,0,0.001,0c0.116,0,0.231-0.028,0.344-0.069
		c0.036-0.014,0.068-0.031,0.103-0.049c0.036-0.018,0.073-0.027,0.107-0.05c0.027-0.019,0.042-0.047,0.066-0.066
		c0.055-0.044,0.102-0.092,0.145-0.146c0.041-0.05,0.075-0.1,0.104-0.154c0.029-0.056,0.052-0.111,0.07-0.172
		c0.021-0.067,0.034-0.132,0.041-0.201c0.003-0.032,0.019-0.06,0.019-0.093c0-0.031-0.015-0.058-0.018-0.088
		c-0.006-0.067-0.02-0.131-0.04-0.197c-0.02-0.066-0.044-0.127-0.076-0.187c-0.015-0.027-0.017-0.057-0.034-0.083l-0.964-1.445
		h0.132C40.559,52.009,41.006,51.562,41.006,51.009z"/>
	<path d="M35.006,52.009h-2.998c-0.553,0-1,0.447-1,1s0.447,1,1,1h2.998c0.553,0,1-0.447,1-1S35.559,52.009,35.006,52.009z"/>
	<path d="M13.996,54.009h2.998c0.553,0,1-0.447,1-1s-0.447-1-1-1h-2.998c-0.553,0-1,0.447-1,1S13.443,54.009,13.996,54.009z"/>
	<path d="M57.006,23.997c2.755,0,4.996-2.241,4.996-4.996v-5.002c0-0.13-0.026-0.26-0.077-0.382
		c-0.051-0.123-0.124-0.234-0.217-0.326l-1.999-1.999c-0.391-0.391-1.023-0.391-1.414,0L57,12.587l-1.295-1.295
		c-0.391-0.391-1.023-0.391-1.414,0l-0.293,0.293V4.997c0-2.755-2.24-4.996-4.994-4.996H12.996c-2.741,0-4.971,2.221-4.992,4.957
		C8.003,4.972,7.996,4.983,7.996,4.997v46.997H4.998c-1.654,0-3,1.346-3,3v6.005c0,1.654,1.346,3,3,3h44.004c1.654,0,3-1.346,3-3
		v-6.005c0-1.654-1.344-3-2.996-3h-3V23.997H57.006z M57.006,21.997c-1.652,0-2.996-1.344-2.996-2.996
		c0-0.021-0.011-0.038-0.012-0.059v-4.53l1-0.999l1.293,1.293c0.195,0.195,0.451,0.293,0.707,0.293c0.129,0,0.258-0.025,0.379-0.075
		c0.122-0.049,0.237-0.122,0.336-0.221l1.289-1.29l1,1v4.588C60.002,20.653,58.658,21.997,57.006,21.997z M51.998,4.997v14.004
		c0,0.041,0.019,0.076,0.023,0.116c0.025,1.083,0.4,2.072,1.012,2.88h-7.027v-17c0-1.652,1.345-2.996,2.998-2.996
		C50.655,2.001,51.998,3.345,51.998,4.997z M12.996,2.001h32.033c-0.633,0.837-1.023,1.868-1.023,2.996v17.971
		c0,0.011-0.006,0.019-0.006,0.029s0.006,0.019,0.006,0.029v33.972H9.996V5.017C9.996,5.01,10,5.004,10,4.997
		C10,3.345,11.344,2.001,12.996,2.001z M49.006,53.994c0.549,0,0.996,0.448,0.996,1v6.005c0,0.552-0.448,1-1,1H4.998
		c-0.552,0-1-0.448-1-1v-6.005c0-0.552,0.448-1,1-1h2.998v3.004H7.994c-0.553,0-1,0.447-1,1s0.447,1,1,1h38.014c0.553,0,1-0.447,1-1
		s-0.447-1-1-1h-0.002v-3.004H49.006z"/>
	<path d="M13.998,23.996L13.998,23.996c0.001,1.653,1.347,2.998,3,2.998h19.998c1.647,0,2.987-1.336,2.998-2.98
		c0-0.006,0.004-0.012,0.004-0.018l0,0c0.553,0,1-0.447,1-1s-0.447-1-1-1h-1v-1.992C38.998,20,39,19.998,39,19.994
		c0-5.808-4.147-10.662-9.635-11.764c0.072-0.234,0.123-0.479,0.123-0.736c0-1.379-1.121-2.5-2.5-2.5s-2.5,1.121-2.5,2.5
		c0,0.26,0.051,0.505,0.124,0.74C19.136,9.344,15,14.194,15,19.994v2.002h-1.002c-0.553,0-1,0.447-1,1S13.445,23.996,13.998,23.996z
		 M37.996,23.996c-0.002,0.551-0.449,0.998-1,0.998H16.998c-0.55,0-0.996-0.445-0.999-0.995c0-0.001,0.001-0.002,0.001-0.003H37.996
		z M26.988,6.994c0.275,0,0.5,0.225,0.5,0.5s-0.225,0.5-0.5,0.5s-0.5-0.225-0.5-0.5S26.713,6.994,26.988,6.994z M17,19.994
		c0-5.514,4.486-10,10-10c5.511,0,9.995,4.482,10,9.992c0,0.003-0.002,0.005-0.002,0.008v2.002H17V19.994z"/>
	<path d="M27,10.994c-0.553,0-1,0.447-1,1s0.447,1,1,1c3.859,0,7,3.141,7,7c0,0.553,0.447,1,1,1s1-0.447,1-1
		C36,15.031,31.963,10.994,27,10.994z"/>
</g>
</svg>
