<?xml version="1.0" encoding="utf-8"?>
<!-- Generator: Adobe Illustrator 16.0.0, SVG Export Plug-In . SVG Version: 6.00 Build 0)  -->
<!DOCTYPE svg PUBLIC "-//W3C//DTD SVG 1.1//EN" "http://www.w3.org/Graphics/SVG/1.1/DTD/svg11.dtd">
<svg version="1.1" id="icons" xmlns="http://www.w3.org/2000/svg" xmlns:xlink="http://www.w3.org/1999/xlink" x="0px" y="0px"
	 width="64px" height="64px" viewBox="0 0 64 64" enable-background="new 0 0 64 64" xml:space="preserve">
<g>
	<path d="M51,54c-1.327,0-2.578,0.534-3.5,1.451c-0.902-0.897-2.15-1.412-3.429-1.437C44.046,54.013,44.025,54,44,54
		c-0.05,0-0.096,0.014-0.146,0.015c-0.233,0.006-0.467,0.03-0.7,0.071c-0.117,0.02-0.231,0.045-0.346,0.073
		c-0.055,0.014-0.109,0.02-0.164,0.035C41.921,52.307,40.104,51,38,51c-0.457,0-0.913,0.066-1.355,0.194
		c-0.157-0.408-0.384-0.784-0.645-1.14v-8.239c1.161-0.413,2-1.513,2-2.813V39h1c0.553,0,1-0.447,1-1v-1h5c0.553,0,1-0.447,1-1v-3
		c0-3.518-2.613-6.431-6-6.92v-2.078h4.004c1.652,0,2.997-1.345,2.997-2.998h0.012c0.553,0,1-0.447,1-1s-0.447-1-1-1h-0.991
		c-0.005,0-0.009-0.003-0.014-0.003v-1.999c0-0.005-0.003-0.009-0.003-0.013C45.999,10.09,40.971,4.356,34.389,3.222
		c0.07-0.229,0.119-0.469,0.119-0.722c0-1.379-1.121-2.5-2.5-2.5s-2.5,1.121-2.5,2.5c0,0.253,0.049,0.492,0.119,0.722
		c-6.578,1.135-11.604,6.86-11.616,13.755c0,0.009-0.005,0.017-0.005,0.025v2.002h-1.002c-0.553,0-1,0.447-1,1s0.447,1,1,1h0.001
		c0.001,1.653,1.347,2.998,3,2.998H24v2.08c-3.387,0.487-6,3.399-6,6.918v3c0,0.553,0.447,1,1,1h5v1c0,0.553,0.447,1,1,1h1
		c0,1.302,0.839,2.401,2,2.815v8.239c-0.261,0.355-0.487,0.731-0.645,1.14c-0.056-0.016-0.112-0.022-0.168-0.036
		c-0.11-0.027-0.219-0.052-0.331-0.071C26.573,51.035,26.287,51,26,51c-2.104,0-3.921,1.307-4.645,3.194
		c-1.728-0.498-3.616,0.024-4.855,1.257C15.578,54.534,14.327,54,13,54c-2.757,0-5,2.243-5,5s2.243,5,5,5h38c2.757,0,5-2.243,5-5
		S53.757,54,51,54z M35,40h-6c-0.536,0-0.967-0.426-0.991-0.955c0.001-0.016,0.009-0.028,0.009-0.043V39H36v0.002
		C36,39.553,35.552,40,35,40z M44,33v2h-4v-6.898C42.279,28.567,44,30.587,44,33z M25.01,22.002C25.006,22.002,25.004,22,25,22
		s-0.006,0.002-0.01,0.002h-4.985c-0.551,0-0.998-0.447-0.999-0.998l0,0H45c0,0.001,0.001,0.001,0.001,0.002
		c-0.001,0.55-0.448,0.996-0.997,0.996H25.01z M32.008,2c0.275,0,0.5,0.225,0.5,0.5S32.283,3,32.008,3s-0.5-0.225-0.5-0.5
		S31.732,2,32.008,2z M20.006,17.021c0-0.007,0.004-0.013,0.004-0.02c0-6.616,5.382-11.998,11.998-11.998
		s11.998,5.382,11.998,11.998c0,0.004,0.002,0.006,0.002,0.01v1.992H20.006V17.021z M38,24.002V37H26V24.002H38z M20,35v-2
		c0-2.414,1.721-4.433,4-4.896V35H20z M51,62H13c-1.654,0-3-1.346-3-3s1.346-3,3-3c1.087,0,2.092,0.605,2.621,1.579
		c0.352,0.645,1.406,0.645,1.758,0c0.789-1.45,2.682-2.022,4.15-1.144c0.292,0.176,0.655,0.19,0.96,0.037
		c0.306-0.152,0.512-0.449,0.548-0.789C23.199,54.153,24.474,53,26,53c0.252,0,0.498,0.038,0.74,0.104
		c0.034,0.009,0.067,0.021,0.102,0.031c0.234,0.072,0.465,0.168,0.688,0.301c0.008,0.005,0.016,0.006,0.023,0.011
		C28.417,53.974,29,54.916,29,56c0,1.654-1.346,3-3,3c-0.553,0-1,0.447-1,1s0.447,1,1,1c2.757,0,5-2.243,5-5
		c0-1.558-0.731-2.934-1.852-3.852c0.121-0.411,0.323-0.792,0.607-1.12c0.032-0.038,0.045-0.084,0.07-0.125
		c0.039-0.06,0.079-0.115,0.104-0.183c0.025-0.068,0.032-0.138,0.042-0.209C29.979,50.465,30,50.423,30,50.373V42h1v3
		c0,0.553,0.447,1,1,1s1-0.447,1-1v-3h1v8.373c0,0.049,0.021,0.092,0.028,0.139c0.01,0.071,0.017,0.141,0.042,0.209
		c0.025,0.067,0.064,0.123,0.104,0.183c0.025,0.041,0.037,0.087,0.07,0.125c0.405,0.467,0.653,1.039,0.719,1.655
		c0.035,0.339,0.242,0.637,0.548,0.789c0.306,0.153,0.669,0.139,0.96-0.037C36.954,53.146,37.468,53,38,53
		c1.341,0,2.486,0.891,2.854,2.146C39.732,56.063,39,57.44,39,59c0,0.553,0.447,1,1,1s1-0.447,1-1c0-1.084,0.584-2.027,1.447-2.555
		c0.008-0.004,0.016-0.005,0.023-0.01c1.471-0.879,3.362-0.307,4.15,1.144c0.352,0.645,1.406,0.645,1.758,0
		C48.908,56.605,49.913,56,51,56c1.654,0,3,1.346,3,3S52.654,62,51,62z"/>
	<path d="M32.008,6.002c-0.553,0-1,0.447-1,1s0.447,1,1,1c4.963,0,9,4.037,9,9c0,0.553,0.447,1,1,1s1-0.447,1-1
		C43.008,10.937,38.073,6.002,32.008,6.002z"/>
</g>
</svg>
