<?xml version="1.0" encoding="utf-8"?>
<!-- Generator: Adobe Illustrator 16.0.0, SVG Export Plug-In . SVG Version: 6.00 Build 0)  -->
<!DOCTYPE svg PUBLIC "-//W3C//DTD SVG 1.1//EN" "http://www.w3.org/Graphics/SVG/1.1/DTD/svg11.dtd">
<svg version="1.1" id="icons" xmlns="http://www.w3.org/2000/svg" xmlns:xlink="http://www.w3.org/1999/xlink" x="0px" y="0px"
	 width="64px" height="64px" viewBox="0 0 64 64" enable-background="new 0 0 64 64" xml:space="preserve">
<g>
	<path d="M63.991,4.502c0-1.654-1.346-3-3-3h-58c-1.654,0-3,1.346-3,3v2c0,0.031,0.015,0.057,0.018,0.087v54.909
		c0,0.553,0.447,1,1,1h62c0.553,0,1-0.447,1-1V6.502c0-0.031-0.015-0.057-0.018-0.087V4.502z M2.991,3.502h1.02
		c-0.552,0-0.994,0.447-0.994,1s0.452,1,1.005,1c0.552,0,1-0.447,1-1s-0.448-1-1-1h2.989c-0.552,0-0.994,0.447-0.994,1
		s0.452,1,1.005,1c0.552,0,1-0.447,1-1s-0.448-1-1-1h2.989c-0.552,0-0.994,0.447-0.994,1s0.452,1,1.005,1c0.552,0,1-0.447,1-1
		s-0.448-1-1-1h50.97c0.552,0,1,0.448,1,1v1h-51.97h-3h-3h-2.03v-1C1.991,3.95,2.439,3.502,2.991,3.502z M62.009,60.498h-60V7.502
		h60V60.498z"/>
	<path d="M5.016,43.514h53.999c0.553,0,1-0.447,1-1V10.518c0-0.553-0.447-1-1-1H5.016c-0.553,0-1,0.447-1,1v31.996
		C4.016,43.066,4.463,43.514,5.016,43.514z M6.016,11.518h51.999v29.996H6.016V11.518z"/>
	<path d="M19.011,53.516H6.017c-0.553,0-1,0.447-1,1s0.447,1,1,1h12.994c0.553,0,1-0.447,1-1S19.563,53.516,19.011,53.516z"/>
	<path d="M58.01,53.516H45.016c-0.553,0-1,0.447-1,1s0.447,1,1,1H58.01c0.553,0,1-0.447,1-1S58.563,53.516,58.01,53.516z"/>
	<path d="M38.497,53.516H25.503c-0.553,0-1,0.447-1,1s0.447,1,1,1h12.994c0.553,0,1-0.447,1-1S39.05,53.516,38.497,53.516z"/>
	<path d="M35.516,56.516h-7.031c-0.553,0-1,0.447-1,1s0.447,1,1,1h7.031c0.553,0,1-0.447,1-1S36.068,56.516,35.516,56.516z"/>
	<path d="M55.016,56.516H48.01c-0.553,0-1,0.447-1,1s0.447,1,1,1h7.006c0.553,0,1-0.447,1-1S55.568,56.516,55.016,56.516z"/>
	<path d="M16.016,56.516H9.018c-0.553,0-1,0.447-1,1s0.447,1,1,1h6.998c0.553,0,1-0.447,1-1S16.568,56.516,16.016,56.516z"/>
	<path d="M17.503,21.504h0.504v10.004c0,0.553,0.447,1,1,1s1-0.447,1-1V21.504h0.489c0.004,0,0.006,0.002,0.01,0.002
		c1.104,0,2.002-0.898,2.002-2.002v-5.002c0-0.553-0.447-1-1-1s-1,0.447-1,1v2h-0.502v-2c0-0.553-0.447-1-1-1s-1,0.447-1,1v2h-0.499
		v-2c0-0.553-0.447-1-1-1s-1,0.447-1,1v4.999c0,0.002-0.001,0.003-0.001,0.005C15.506,20.607,16.401,21.504,17.503,21.504z
		 M20.508,18.502v0.994c0,0.003-0.002,0.005-0.002,0.008h-2.999v-1.002H20.508z"/>
	<path d="M42.004,31.508c0,0.553,0.447,1,1,1s1-0.447,1-1V25.5h2c0.553,0,1-0.447,1-1v-6.996c0-2.205-1.791-3.998-3.994-4.005
		c-0.002,0-0.004-0.001-0.006-0.001c-0.001,0-0.001,0-0.002,0s-0.003,0-0.004,0c-0.553,0-1,0.447-1,1
		c0,0.011,0.006,0.019,0.006,0.029V31.508z M45.004,17.504V23.5h-1v-7.722C44.599,16.127,45.004,16.766,45.004,17.504z"/>
	<path d="M32.013,31.498c4.962,0,8.998-4.036,8.998-8.998s-4.036-8.998-8.998-8.998s-8.998,4.036-8.998,8.998
		S27.051,31.498,32.013,31.498z M32.013,15.502c3.858,0,6.998,3.14,6.998,6.998s-3.14,6.998-6.998,6.998s-6.998-3.14-6.998-6.998
		S28.154,15.502,32.013,15.502z"/>
	<path d="M32.013,27.5c2.757,0,5-2.243,5-5s-2.243-5-5-5s-5,2.243-5,5S29.256,27.5,32.013,27.5z M32.013,19.5c1.654,0,3,1.346,3,3
		s-1.346,3-3,3s-3-1.346-3-3S30.358,19.5,32.013,19.5z"/>
	<path d="M47,34.502H17.03c-0.553,0-1,0.447-1,1s0.447,1,1,1H47c0.553,0,1-0.447,1-1S47.553,34.502,47,34.502z"/>
	<path d="M39.01,37.502H25.021c-0.553,0-1,0.447-1,1s0.447,1,1,1H39.01c0.553,0,1-0.447,1-1S39.563,37.502,39.01,37.502z"/>
	<path d="M12.514,45.5c-0.553,0-1,0.447-1,1v0.181c-1.44,0.434-2.5,1.757-2.5,3.337v0.484H9c-0.553,0-1,0.447-1,1s0.447,1,1,1h7
		c0.553,0,1-0.447,1-1c0-0.548-0.44-0.989-0.986-0.997v-0.487c0-1.58-1.06-2.903-2.5-3.337V46.5
		C13.514,45.947,13.066,45.5,12.514,45.5z M14.014,50.018v0.484h-3v-0.484c0-0.827,0.673-1.5,1.5-1.5S14.014,49.19,14.014,50.018z"
		/>
	<path d="M32.029,45.5c-0.553,0-1,0.447-1,1v0.181c-1.44,0.434-2.5,1.757-2.5,3.337v0.484h-0.014c-0.553,0-1,0.447-1,1s0.447,1,1,1
		h7c0.553,0,1-0.447,1-1c0-0.548-0.44-0.989-0.986-0.997v-0.487c0-1.58-1.06-2.903-2.5-3.337V46.5
		C33.029,45.947,32.582,45.5,32.029,45.5z M33.529,50.018v0.484h-3v-0.484c0-0.827,0.673-1.5,1.5-1.5S33.529,49.19,33.529,50.018z"
		/>
	<path d="M51.545,45.5c-0.553,0-1,0.447-1,1v0.181c-1.44,0.434-2.5,1.757-2.5,3.337v0.484h-0.014c-0.553,0-1,0.447-1,1s0.447,1,1,1
		h7c0.553,0,1-0.447,1-1c0-0.548-0.44-0.989-0.986-0.997v-0.487c0-1.58-1.06-2.903-2.5-3.337V46.5
		C52.545,45.947,52.098,45.5,51.545,45.5z M53.045,50.018v0.484h-3v-0.484c0-0.827,0.673-1.5,1.5-1.5S53.045,49.19,53.045,50.018z"
		/>
</g>
</svg>
