<?xml version="1.0" encoding="utf-8"?>
<!-- Generator: Adobe Illustrator 16.0.0, SVG Export Plug-In . SVG Version: 6.00 Build 0)  -->
<!DOCTYPE svg PUBLIC "-//W3C//DTD SVG 1.1//EN" "http://www.w3.org/Graphics/SVG/1.1/DTD/svg11.dtd">
<svg version="1.1" id="icons" xmlns="http://www.w3.org/2000/svg" xmlns:xlink="http://www.w3.org/1999/xlink" x="0px" y="0px"
	 width="64px" height="64px" viewBox="0 0 64 64" enable-background="new 0 0 64 64" xml:space="preserve">
<g>
	<path d="M60,10.496H4c-2.206,0-4,1.794-4,4v35.008c0,2.206,1.794,4,4,4h56c2.206,0,4-1.794,4-4V14.496
		C64,12.29,62.206,10.496,60,10.496z M2,19.498h6c0.553,0,1-0.447,1-1s-0.447-1-1-1H2v-1.002h60v2.002H46c-0.553,0-1,0.447-1,1
		s0.447,1,1,1h16v1H2V19.498z M4,12.496h56c1.103,0,2,0.897,2,2H2C2,13.394,2.897,12.496,4,12.496z M60,51.504H4
		c-1.103,0-2-0.897-2-2V23.498h60v26.006C62,50.606,61.103,51.504,60,51.504z"/>
	<path d="M49.001,31.496h10.001c0.553,0,1-0.447,1-1s-0.447-1-1-1H49.001c-0.553,0-1,0.447-1,1S48.448,31.496,49.001,31.496z"/>
	<path d="M60.002,33.496c0-0.553-0.447-1-1-1H49.001c-0.553,0-1,0.447-1,1s0.447,1,1,1h10.001
		C59.555,34.496,60.002,34.049,60.002,33.496z"/>
	<path d="M59.007,35.496h-5.001c-0.553,0-1,0.447-1,1s0.447,1,1,1h5.001c0.553,0,1-0.447,1-1S59.56,35.496,59.007,35.496z"/>
	<path d="M59.007,43.498h-1.002c0-0.553-0.447-1-1-1s-1,0.447-1,1h-0.196l-1.249-0.832c-0.025-0.018-0.056-0.02-0.082-0.033
		c-0.061-0.033-0.122-0.058-0.189-0.078c-0.065-0.02-0.128-0.033-0.194-0.039c-0.03-0.003-0.058-0.018-0.089-0.018
		c-0.033,0-0.062,0.016-0.094,0.019c-0.069,0.007-0.134,0.021-0.2,0.041c-0.061,0.019-0.116,0.04-0.172,0.07
		c-0.056,0.029-0.105,0.064-0.155,0.105c-0.054,0.043-0.101,0.089-0.144,0.143c-0.021,0.025-0.049,0.04-0.067,0.067
		c-0.018,0.026-0.02,0.056-0.034,0.083c-0.032,0.06-0.057,0.12-0.076,0.187s-0.034,0.129-0.04,0.196
		c-0.003,0.03-0.018,0.058-0.018,0.089h-1.001c-0.553,0-1,0.447-1,1s0.447,1,1,1h1.001c0.001,0.552,0.448,0.998,1,0.998
		s0.999-0.446,1-0.998h0.199l1.246,0.83c0.034,0.022,0.071,0.032,0.107,0.051c0.034,0.017,0.066,0.034,0.103,0.048
		c0.112,0.042,0.228,0.069,0.344,0.069c0,0,0,0,0.001,0l0,0c0.001,0,0.001,0,0.001,0c0.119-0.001,0.235-0.028,0.347-0.07
		c0.022-0.008,0.045-0.015,0.066-0.025c0.101-0.045,0.193-0.106,0.275-0.186c0.017-0.016,0.028-0.033,0.044-0.05
		c0.033-0.037,0.07-0.071,0.099-0.114c0.018-0.026,0.02-0.056,0.034-0.083c0.032-0.06,0.057-0.121,0.076-0.188
		c0.02-0.065,0.034-0.128,0.04-0.195c0.003-0.03,0.018-0.056,0.018-0.087h1.002c0.553,0,1-0.447,1-1S59.56,43.498,59.007,43.498z"/>
	<path d="M4.999,32.498c0.553,0,1-0.447,1-1v-1c0-0.553-0.447-1-1-1s-1,0.447-1,1v1C3.999,32.051,4.446,32.498,4.999,32.498z"/>
	<path d="M8,32.498c0.553,0,1-0.447,1-1v-1c0-0.553-0.447-1-1-1s-1,0.447-1,1v1C7,32.051,7.447,32.498,8,32.498z"/>
	<path d="M11.001,32.498c0.553,0,1-0.447,1-1v-1c0-0.553-0.447-1-1-1s-1,0.447-1,1v1C10.001,32.051,10.448,32.498,11.001,32.498z"/>
	<path d="M14.002,29.498c-0.553,0-1,0.447-1,1v1c0,0.553,0.447,1,1,1s1-0.447,1-1v-1C15.002,29.945,14.555,29.498,14.002,29.498z"/>
	<path d="M13.997,33.498H5c-0.553,0-1,0.447-1,1s0.447,1,1,1h8.997c0.553,0,1-0.447,1-1S14.55,33.498,13.997,33.498z"/>
	<path d="M13.997,36.498H5c-0.553,0-1,0.447-1,1s0.447,1,1,1h8.997c0.553,0,1-0.447,1-1S14.55,36.498,13.997,36.498z"/>
	<path d="M6.5,42.498c-1.379,0-2.501,1.121-2.501,2.5c0,1.38,1.122,2.502,2.501,2.502S9,46.378,9,44.998
		C9,43.619,7.879,42.498,6.5,42.498z M6.5,45.5c-0.276,0-0.501-0.226-0.501-0.502c0-0.275,0.225-0.5,0.501-0.5
		c0.275,0,0.5,0.225,0.5,0.5C7,45.274,6.775,45.5,6.5,45.5z"/>
	<path d="M12.501,42.498c-1.379,0-2.501,1.121-2.501,2.5c0,1.38,1.122,2.502,2.501,2.502s2.5-1.122,2.5-2.502
		C15.001,43.619,13.88,42.498,12.501,42.498z M12.501,45.5C12.225,45.5,12,45.274,12,44.998c0-0.275,0.225-0.5,0.501-0.5
		c0.275,0,0.5,0.225,0.5,0.5C13.001,45.274,12.776,45.5,12.501,45.5z"/>
	<path d="M45.009,43.501h-1.001v-1.992c0-0.004,0.002-0.007,0.002-0.01c0-5.808-4.147-10.662-9.635-11.764
		c0.072-0.234,0.123-0.479,0.123-0.736c0-1.379-1.121-2.5-2.5-2.5s-2.5,1.121-2.5,2.5c0,0.259,0.051,0.505,0.124,0.74
		c-5.477,1.109-9.612,5.96-9.612,11.76v2.002h-1.002c-0.553,0-1,0.447-1,1s0.447,1,1,1h0.001c0.001,1.653,1.347,2.998,3,2.998
		h19.998c1.647,0,2.987-1.335,2.998-2.98c0-0.006,0.004-0.012,0.004-0.018l0,0c0.553,0,1-0.447,1-1S45.562,43.501,45.009,43.501z
		 M42.007,46.499H22.009c-0.551,0-0.998-0.447-0.999-0.997c0-0.001,0-0.001,0-0.001h21.997
		C43.006,46.052,42.558,46.499,42.007,46.499z M31.998,28.499c0.275,0,0.5,0.225,0.5,0.5s-0.225,0.5-0.5,0.5s-0.5-0.225-0.5-0.5
		S31.723,28.499,31.998,28.499z M22.01,41.499c0-5.514,4.486-10,10-10c5.511,0,9.995,4.482,10,9.992
		c0,0.003-0.002,0.005-0.002,0.008v2.002H22.01V41.499z"/>
	<path d="M32.01,32.499c-0.553,0-1,0.447-1,1s0.447,1,1,1c3.859,0,7,3.141,7,7c0,0.553,0.447,1,1,1s1-0.447,1-1
		C41.01,36.536,36.973,32.499,32.01,32.499z"/>
</g>
</svg>
