<?xml version="1.0" encoding="utf-8"?>
<!-- Generator: Adobe Illustrator 16.0.0, SVG Export Plug-In . SVG Version: 6.00 Build 0)  -->
<!DOCTYPE svg PUBLIC "-//W3C//DTD SVG 1.1//EN" "http://www.w3.org/Graphics/SVG/1.1/DTD/svg11.dtd">
<svg version="1.1" id="icons" xmlns="http://www.w3.org/2000/svg" xmlns:xlink="http://www.w3.org/1999/xlink" x="0px" y="0px"
	 width="64px" height="64px" viewBox="0 0 64 64" enable-background="new 0 0 64 64" xml:space="preserve">
<g>
	<path d="M40.557,9.443C36.401,5.288,30.877,3,25,3S13.599,5.288,9.443,9.443C5.288,13.598,3,19.122,3,25
		c0,5.877,2.288,11.402,6.443,15.555c4.155,4.155,9.68,6.443,15.557,6.443s11.401-2.288,15.557-6.443
		C49.134,31.977,49.134,18.021,40.557,9.443z M39.143,39.141c-3.777,3.777-8.8,5.857-14.143,5.857s-10.365-2.08-14.143-5.857
		C7.08,35.364,5,30.342,5,25s2.08-10.365,5.857-14.142C14.635,7.08,19.657,5,25,5s10.365,2.081,14.143,5.858
		C46.94,18.655,46.94,31.343,39.143,39.141z"/>
	<path d="M62.535,55.466l-11.58-11.583c-0.391-0.391-1.023-0.391-1.414,0l-0.708,0.708l-4.166-4.167
		c7.698-9.802,7.04-24.073-1.989-33.102C37.956,2.6,31.678,0,25,0C18.323,0,12.045,2.6,7.322,7.322C2.601,12.043,0,18.321,0,24.999
		c0.001,6.678,2.601,12.956,7.322,17.678s11,7.321,17.678,7.321c5.666,0,11.041-1.879,15.426-5.331l4.166,4.167l-0.707,0.707
		c-0.391,0.391-0.391,1.023,0,1.414l11.58,11.58c0.944,0.944,2.2,1.465,3.536,1.465s2.591-0.521,3.534-1.465
		c0.944-0.944,1.465-2.2,1.465-3.536C64,57.664,63.48,56.41,62.535,55.466C62.535,55.467,62.535,55.466,62.535,55.466z
		 M8.736,41.263C4.393,36.919,2.001,31.143,2,24.999C2,18.855,4.393,13.08,8.736,8.736C13.081,4.392,18.857,2,25,2
		c6.144,0,11.92,2.392,16.264,6.736c8.967,8.967,8.967,23.558,0,32.526C36.919,45.606,31.143,47.998,25,47.998
		C18.856,47.998,13.08,45.606,8.736,41.263z M41.953,43.366c0.244-0.226,0.488-0.453,0.725-0.689
		c0.237-0.237,0.464-0.48,0.689-0.725l4.052,4.053l-1.413,1.415L41.953,43.366z M61.12,61.121c-1.132,1.135-3.109,1.133-4.241,0
		L46.006,50.248l0.705-0.706c0.001,0,0.002-0.001,0.002-0.001s0.001-0.001,0.001-0.002l2.823-2.823
		c0.001-0.001,0.003-0.002,0.004-0.003s0.002-0.003,0.003-0.004l0.704-0.705L61.121,56.88c0,0,0,0,0.001,0c0,0.001,0,0.001,0,0.001
		C61.688,57.446,62,58.198,62,58.999C62,59.801,61.688,60.555,61.12,61.121z"/>
	<path d="M39.001,30.002H38V28c0-6.243-4.425-11.468-10.301-12.714C27.887,14.895,28,14.462,28,14c0-1.654-1.346-3-3-3s-3,1.346-3,3
		c0,0.462,0.113,0.895,0.301,1.286C16.425,16.532,12,21.757,12,28v2.002h-1.002c-0.553,0-1,0.448-1,1s0.447,1,1,1h0.001
		C11,33.655,12.346,35,13.999,35h22c1.647,0,2.987-1.336,2.998-2.98c0-0.006,0.004-0.011,0.004-0.018l0,0c0.553,0,1-0.448,1-1
		S39.554,30.002,39.001,30.002z M35.999,33h-22c-0.551,0-0.998-0.447-0.999-0.998v0h23.999C36.998,32.552,36.55,33,35.999,33z
		 M24,14c0-0.551,0.448-1,1-1s1,0.449,1,1s-0.448,1-1,1S24,14.551,24,14z M14,28c0-6.065,4.935-11,11-11s11,4.935,11,11v2.002H14V28
		z"/>
	<path d="M25,18c-0.553,0-1,0.448-1,1s0.447,1,1,1c4.411,0,8,3.589,8,8c0,0.552,0.447,1,1,1s1-0.448,1-1C35,22.486,30.514,18,25,18z
		"/>
</g>
</svg>
