<?xml version="1.0" encoding="utf-8"?>
<!-- Generator: Adobe Illustrator 16.0.0, SVG Export Plug-In . SVG Version: 6.00 Build 0)  -->
<!DOCTYPE svg PUBLIC "-//W3C//DTD SVG 1.1//EN" "http://www.w3.org/Graphics/SVG/1.1/DTD/svg11.dtd">
<svg version="1.1" id="icons" xmlns="http://www.w3.org/2000/svg" xmlns:xlink="http://www.w3.org/1999/xlink" x="0px" y="0px"
	 width="64px" height="64px" viewBox="0 0 64 64" enable-background="new 0 0 64 64" xml:space="preserve">
<g>
	<path d="M54.223,13.008l-0.206,1.202c-0.064,0.375,0.09,0.754,0.397,0.979c0.31,0.223,0.718,0.253,1.054,0.075l1.079-0.567
		l1.081,0.567c0.146,0.077,0.306,0.115,0.465,0.115c0.207,0,0.414-0.064,0.588-0.191c0.308-0.224,0.462-0.603,0.397-0.979
		l-0.206-1.201l0.872-0.85c0.273-0.266,0.371-0.663,0.254-1.025s-0.43-0.626-0.807-0.681l-1.207-0.177l-0.541-1.095
		c-0.336-0.684-1.457-0.684-1.793,0l-0.541,1.095l-1.207,0.177c-0.377,0.055-0.689,0.318-0.807,0.681s-0.02,0.76,0.254,1.025
		L54.223,13.008z M56.547,11.823c0.108,0.132,0.248,0.234,0.407,0.297c-0.092,0.144-0.146,0.309-0.155,0.479
		c-0.166-0.043-0.338-0.043-0.504,0c-0.01-0.17-0.063-0.335-0.155-0.479C56.299,12.058,56.438,11.955,56.547,11.823z"/>
	<path d="M46.224,13.008l-0.206,1.202c-0.064,0.375,0.09,0.754,0.397,0.979c0.311,0.223,0.717,0.253,1.054,0.075l1.079-0.567
		l1.081,0.567c0.146,0.077,0.306,0.115,0.465,0.115c0.207,0,0.414-0.064,0.588-0.191c0.308-0.224,0.462-0.603,0.397-0.979
		l-0.206-1.201l0.872-0.85c0.273-0.266,0.371-0.663,0.254-1.025s-0.43-0.626-0.807-0.681l-1.207-0.177l-0.541-1.095
		c-0.336-0.684-1.457-0.684-1.793,0l-0.541,1.095l-1.207,0.177c-0.377,0.055-0.689,0.318-0.807,0.681s-0.02,0.76,0.254,1.025
		L46.224,13.008z M48.548,11.823c0.108,0.132,0.248,0.234,0.407,0.297c-0.092,0.144-0.146,0.309-0.155,0.479
		c-0.166-0.043-0.338-0.043-0.504,0c-0.01-0.17-0.063-0.335-0.155-0.479C48.3,12.058,48.439,11.955,48.548,11.823z"/>
	<path d="M38.225,13.008l-0.206,1.202c-0.064,0.375,0.09,0.754,0.397,0.979c0.31,0.223,0.717,0.253,1.054,0.075l1.079-0.567
		l1.081,0.567c0.146,0.077,0.306,0.115,0.465,0.115c0.207,0,0.414-0.064,0.588-0.191c0.308-0.224,0.462-0.603,0.397-0.979
		l-0.206-1.201l0.872-0.85c0.273-0.266,0.371-0.663,0.254-1.025s-0.43-0.626-0.807-0.681l-1.207-0.177l-0.541-1.095
		c-0.336-0.684-1.457-0.684-1.793,0l-0.541,1.095l-1.207,0.177c-0.377,0.055-0.689,0.318-0.807,0.681s-0.02,0.76,0.254,1.025
		L38.225,13.008z M40.549,11.823c0.108,0.132,0.248,0.234,0.407,0.297c-0.092,0.144-0.146,0.309-0.155,0.479
		c-0.166-0.043-0.338-0.043-0.504,0c-0.01-0.17-0.063-0.335-0.155-0.479C40.301,12.058,40.44,11.955,40.549,11.823z"/>
	<path d="M32.021,21.071C31.79,12.448,24.72,5.5,16.042,5.5S0.294,12.448,0.063,21.071c-0.063,0.132-0.104,0.273-0.104,0.429
		c0,0.142,0.031,0.275,0.084,0.397v26.599c0,0.002,0.001,0.003,0.001,0.005l-0.001,7.997v0.001V56.5c0,1.103,0.897,2,2,2h27.998
		c1.103,0,2-0.897,2-2v-8.002V21.897c0.053-0.122,0.084-0.256,0.084-0.397C32.125,21.345,32.083,21.202,32.021,21.071z M16.042,7.5
		c7.382,0,13.433,5.747,13.949,13h-0.949c0-0.553-0.447-1-1-1s-1,0.447-1,1h-2c0-0.553-0.447-1-1-1s-1,0.447-1,1h-2
		c0-0.553-0.447-1-1-1s-1,0.447-1,1h-2c0-0.553-0.447-1-1-1s-1,0.447-1,1h-2c0-0.553-0.447-1-1-1s-1,0.447-1,1h-2
		c0-0.553-0.447-1-1-1s-1,0.447-1,1h-2c0-0.553-0.447-1-1-1s-1,0.447-1,1H2.093C2.609,13.247,8.66,7.5,16.042,7.5z M25.04,43.498
		C25.041,43.498,25.041,43.498,25.04,43.498c2.758,0,5.001,2.243,5.001,5V56.5H2.043v-0.001v-0.001l0.001-8.002
		c0-1.337,0.52-2.593,1.463-3.536c0.941-0.942,2.196-1.462,3.53-1.463c0.003,0,0.005,0.001,0.007,0.001c0,0,0,0,0.001,0l2.637-0.002
		l5.72,4.77c0.047,0.039,0.101,0.058,0.151,0.087c0.038,0.021,0.071,0.047,0.111,0.063c0.122,0.05,0.248,0.082,0.377,0.082h0.001
		h0.001c0.129,0,0.256-0.032,0.378-0.082c0.038-0.016,0.07-0.04,0.106-0.061c0.052-0.029,0.107-0.05,0.155-0.089l5.722-4.771
		L25.04,43.498z M2.043,22.5h1v4.998c0,0.016,0.008,0.027,0.009,0.043c0.012,4.571,2.401,8.586,5.99,10.893l0.001,3.063
		l-1.989,0.001c-0.004,0-0.007-0.002-0.01-0.002c-1.871,0-3.63,0.728-4.951,2.049c-0.018,0.018-0.032,0.037-0.05,0.055V22.5z
		 M21.042,42.027l-5.001,4.169l-4.998-4.168l-0.001-2.533c1.54,0.645,3.229,1.003,5,1.003s3.46-0.358,5-1.003V42.027z
		 M16.042,38.498c-6.062,0-10.992-4.931-10.992-10.992c0-0.012-0.007-0.022-0.007-0.034V22.5h21.998v4.972
		c0,0.013-0.007,0.022-0.007,0.034C27.034,33.567,22.104,38.498,16.042,38.498z M25.042,41.498L25.042,41.498l-2-0.001v-3.063
		c3.589-2.307,5.979-6.321,5.99-10.893c0.001-0.016,0.009-0.027,0.009-0.043V22.5h1v21.108C28.77,42.309,27,41.498,25.042,41.498z"
		/>
	<path d="M61.982,43.215c-0.02-0.066-0.044-0.127-0.076-0.187c-0.015-0.027-0.017-0.057-0.034-0.083l-1.832-2.748V37.5
		c0-0.553-0.447-1-1-1h-9v-1.002h0.978c0.007,0,0.013,0.004,0.02,0.004s0.013-0.004,0.02-0.004h5.983c0.553,0,1-0.447,1-1V21.5
		c0-0.553-0.447-1-1-1h-17c-0.553,0-1,0.447-1,1v12.998c0,0.553,0.447,1,1,1h5.478c0.007,0,0.013,0.004,0.02,0.004
		s0.013-0.004,0.02-0.004h2.483V36.5h-9.999c-0.553,0-1,0.447-1,1v2.697l-1.833,2.748c-0.018,0.026-0.02,0.057-0.034,0.083
		c-0.032,0.06-0.057,0.12-0.076,0.186c-0.02,0.066-0.034,0.13-0.04,0.198c-0.003,0.03-0.018,0.057-0.018,0.088v3
		c0,0.553,0.447,1,1,1h1.002l-0.001,9h-1c-0.553,0-1,0.447-1,1s0.447,1,1,1H61.04c0.553,0,1-0.447,1-1s-0.447-1-1-1h-1v-9h1
		c0.553,0,1-0.447,1-1v-3c0-0.031-0.015-0.058-0.018-0.088C62.017,43.345,62.003,43.281,61.982,43.215z M53.037,27.506v1.992h-1
		V25.78C52.633,26.129,53.037,26.768,53.037,27.506z M41.04,22.5h15v10.998h-4.003v-2h2c0.553,0,1-0.447,1-1v-2.992
		c0-2.205-1.791-3.998-3.994-4.005c-0.002,0-0.004-0.001-0.006-0.001c-0.001,0-0.001,0-0.002,0s-0.003,0-0.004,0
		c-0.553,0-1,0.447-1,1c0,0.011,0.006,0.019,0.006,0.029v8.969h-3.5v-2.994h0.489c0.003,0,0.007,0.002,0.01,0.002
		c1.103,0,1.999-0.896,2.001-1.998c0-0.001,0.001-0.001,0.001-0.002v-4.002c0-0.553-0.447-1-1-1s-1,0.447-1,1v0.998h-0.502v-0.998
		c0-0.553-0.447-1-1-1s-1,0.447-1,1v0.998h-0.499v-0.998c0-0.553-0.447-1-1-1s-1,0.447-1,1v3.999c0,0.002-0.001,0.003-0.001,0.005
		c0,1.101,0.896,1.996,1.997,1.996h0.504v2.994H41.04V22.5z M47.038,27.502v0.994c0,0.003-0.002,0.005-0.002,0.008h-2.999v-1.002
		H47.038z M37.04,45.5v-1h23v1H37.04z M58.04,38.5v1H39.041v-1H58.04z M38.576,41.5h19.929l0.667,1H37.909L38.576,41.5z
		 M42.041,50.5h2v6h-2V50.5z M58.04,56.5H46.041v-7c0-0.553-0.447-1-1-1h-4c-0.553,0-1,0.447-1,1v7h-1l0.001-9H58.04V56.5z"/>
	<path d="M48.041,55.5h7.999c0.553,0,1-0.447,1-1v-5c0-0.553-0.447-1-1-1h-7.999c-0.553,0-1,0.447-1,1v5
		C47.041,55.053,47.488,55.5,48.041,55.5z M49.041,50.5h5.999v3h-5.999V50.5z"/>
	<path d="M16.072,50.498h-0.011c-0.552,0-0.994,0.447-0.994,1s0.452,1,1.005,1c0.552,0,1-0.447,1-1S16.624,50.498,16.072,50.498z"/>
	<path d="M63.041,5.502H34.04c-0.553,0-1,0.447-1,1v11c0,0.553,0.447,1,1,1h12.698l1.248,0.832c0.168,0.112,0.361,0.168,0.555,0.168
		s0.387-0.056,0.555-0.168l1.248-0.832h12.697c0.553,0,1-0.447,1-1v-11C64.041,5.949,63.594,5.502,63.041,5.502z M62.041,16.502h-12
		c-0.197,0-0.391,0.059-0.555,0.168l-0.945,0.63l-0.945-0.63c-0.164-0.109-0.357-0.168-0.555-0.168H35.04v-9h27.001V16.502z"/>
</g>
</svg>
