<?xml version="1.0" encoding="utf-8"?>
<!-- Generator: Adobe Illustrator 16.0.0, SVG Export Plug-In . SVG Version: 6.00 Build 0)  -->
<!DOCTYPE svg PUBLIC "-//W3C//DTD SVG 1.1//EN" "http://www.w3.org/Graphics/SVG/1.1/DTD/svg11.dtd">
<svg version="1.1" id="icons" xmlns="http://www.w3.org/2000/svg" xmlns:xlink="http://www.w3.org/1999/xlink" x="0px" y="0px"
	 width="64px" height="64px" viewBox="0 0 64 64" enable-background="new 0 0 64 64" xml:space="preserve">
<g>
	<path d="M1.061,55.364c0.007,0.019,0.005,0.041,0.012,0.06c0.02,0.044,0.055,0.076,0.08,0.117c0.175,0.29,0.479,0.493,0.842,0.493
		c0,0,0,0,0.001,0l26.998-0.018c0.552,0,0.999-0.448,0.999-1.001c0-0.552-0.448-0.999-1-0.999c0,0,0,0-0.001,0L2.994,54.033v-1.015
		l25.998-0.002c0.553,0,1-0.448,1-1c0-0.553-0.448-1-1-1L2.994,51.019v-1.018h25.998c0.553,0,1-0.447,1-1s-0.447-1-1-1H2.994v-34
		h46.009l0.009,7c0.001,0.552,0.448,0.999,1,0.999h0.001c0.553,0,1-0.449,0.999-1.001L50.994,7c0,0,0-0.001,0-0.001
		c-0.002-1.653-1.347-2.997-3-2.997h-3v-1.5c0-1.378-1.121-2.5-2.5-2.5s-2.5,1.122-2.5,2.5v1.5h-6v-1.5c0-1.378-1.121-2.5-2.5-2.5
		s-2.5,1.122-2.5,2.5v1.5h-6v-1.5c0-1.378-1.121-2.5-2.5-2.5s-2.5,1.122-2.5,2.5v1.5h-6v-1.5c0-1.378-1.121-2.5-2.5-2.5
		s-2.5,1.122-2.5,2.5v1.5h-3c-1.654,0-3,1.346-3,3v48.033c0,0,0,0,0,0.001l0,0C0.994,55.152,1.023,55.26,1.061,55.364z
		 M41.994,2.501c0-0.276,0.225-0.5,0.5-0.5s0.5,0.224,0.5,0.5v5c0,0.276-0.225,0.5-0.5,0.5s-0.5-0.224-0.5-0.5V2.501z M30.994,2.501
		c0-0.276,0.225-0.5,0.5-0.5s0.5,0.224,0.5,0.5v5c0,0.276-0.225,0.5-0.5,0.5s-0.5-0.224-0.5-0.5V2.501z M19.994,2.501
		c0-0.276,0.225-0.5,0.5-0.5s0.5,0.224,0.5,0.5v5c0,0.276-0.225,0.5-0.5,0.5s-0.5-0.224-0.5-0.5V2.501z M8.994,2.501
		c0-0.276,0.225-0.5,0.5-0.5s0.5,0.224,0.5,0.5v5c0,0.276-0.225,0.5-0.5,0.5s-0.5-0.224-0.5-0.5V2.501z M3.994,6.001h3v1.5
		c0,1.378,1.121,2.5,2.5,2.5s2.5-1.122,2.5-2.5v-1.5h6v1.5c0,1.378,1.121,2.5,2.5,2.5s2.5-1.122,2.5-2.5v-1.5h6v1.5
		c0,1.378,1.121,2.5,2.5,2.5s2.5-1.122,2.5-2.5v-1.5h6v1.5c0,1.378,1.121,2.5,2.5,2.5s2.5-1.122,2.5-2.5v-1.5h3c0.552,0,1,0.449,1,1
		c0,0,0,0,0,0.001c0,0,0,0,0,0L49,12.001H2.994v-5C2.994,6.45,3.442,6.001,3.994,6.001z"/>
	<path d="M10.994,17.001c0-0.552-0.447-1-1-1h-4c-0.553,0-1,0.448-1,1v4c0,0.552,0.447,1,1,1h4c0.553,0,1-0.448,1-1V17.001z
		 M8.994,20.001h-2v-2h2V20.001z"/>
	<path d="M19.994,17.001c0-0.552-0.447-1-1-1h-4c-0.553,0-1,0.448-1,1v4c0,0.552,0.447,1,1,1h4c0.553,0,1-0.448,1-1V17.001z
		 M17.994,20.001h-2v-2h2V20.001z"/>
	<path d="M28.994,17.001c0-0.552-0.447-1-1-1h-4c-0.553,0-1,0.448-1,1v4c0,0.552,0.447,1,1,1h4c0.553,0,1-0.448,1-1V17.001z
		 M26.994,20.001h-2v-2h2V20.001z"/>
	<path d="M32.994,22.001h4c0.553,0,1-0.448,1-1v-4c0-0.552-0.447-1-1-1h-4c-0.553,0-1,0.448-1,1v4
		C31.994,21.553,32.441,22.001,32.994,22.001z M33.994,18.001h2v2h-2V18.001z"/>
	<path d="M10.994,25.001c0-0.552-0.447-1-1-1h-4c-0.553,0-1,0.448-1,1v4c0,0.552,0.447,1,1,1h4c0.553,0,1-0.448,1-1V25.001z
		 M8.994,28.001h-2v-2h2V28.001z"/>
	<path d="M19.994,25.001c0-0.552-0.447-1-1-1h-4c-0.553,0-1,0.448-1,1v4c0,0.552,0.447,1,1,1h4c0.553,0,1-0.448,1-1V25.001z
		 M17.994,28.001h-2v-2h2V28.001z"/>
	<path d="M28.994,25.001c0-0.552-0.447-1-1-1h-4c-0.553,0-1,0.448-1,1v4c0,0.552,0.447,1,1,1h4c0.553,0,1-0.448,1-1V25.001z
		 M26.994,28.001h-2v-2h2V28.001z"/>
	<path d="M10.994,33.001c0-0.552-0.447-1-1-1h-4c-0.553,0-1,0.448-1,1v4c0,0.553,0.447,1,1,1h4c0.553,0,1-0.447,1-1V33.001z
		 M8.994,36.001h-2v-2h2V36.001z"/>
	<path d="M19.994,33.001c0-0.552-0.447-1-1-1h-4c-0.553,0-1,0.448-1,1v4c0,0.553,0.447,1,1,1h4c0.553,0,1-0.447,1-1V33.001z
		 M17.994,36.001h-2v-2h2V36.001z"/>
	<path d="M28.994,33.001c0-0.552-0.447-1-1-1h-4c-0.553,0-1,0.448-1,1v4c0,0.553,0.447,1,1,1h4c0.553,0,1-0.447,1-1V33.001z
		 M26.994,36.001h-2v-2h2V36.001z"/>
	<path d="M9.994,40.001h-4c-0.553,0-1,0.447-1,1v4c0,0.553,0.447,1,1,1h4c0.553,0,1-0.447,1-1v-4
		C10.994,40.448,10.547,40.001,9.994,40.001z M8.994,44.001h-2v-2h2V44.001z"/>
	<path d="M18.994,40.001h-4c-0.553,0-1,0.447-1,1v4c0,0.553,0.447,1,1,1h4c0.553,0,1-0.447,1-1v-4
		C19.994,40.448,19.547,40.001,18.994,40.001z M17.994,44.001h-2v-2h2V44.001z"/>
	<path d="M27.994,40.001h-4c-0.553,0-1,0.447-1,1v4c0,0.553,0.447,1,1,1h4c0.553,0,1-0.447,1-1v-4
		C28.994,40.448,28.547,40.001,27.994,40.001z M26.994,44.001h-2v-2h2V44.001z"/>
	<path d="M31.994,29.001c0,0.552,0.447,1,1,1h4c0.553,0,1-0.448,1-1v-4c0-0.552-0.447-1-1-1h-4c-0.553,0-1,0.448-1,1V29.001z
		 M33.994,26.001h2v2h-2V26.001z"/>
	<path d="M45.994,22.001c0.553,0,1-0.448,1-1v-4c0-0.552-0.447-1-1-1h-4c-0.553,0-1,0.448-1,1v4c0,0.552,0.447,1,1,1H45.994z
		 M42.994,18.001h2v2h-2V18.001z"/>
	<path d="M44.002,38.998c-0.553,0-1,0.447-1,1v0.999H42.5v-0.999c0-0.553-0.447-1-1-1s-1,0.447-1,1v0.999h-0.498v-0.999
		c0-0.553-0.447-1-1-1s-1,0.447-1,1v3.994c0,0.004-0.002,0.006-0.002,0.01c0,1.102,0.896,1.997,1.998,1.997h0.504v12.004
		c0,0.553,0.447,1,1,1s1-0.447,1-1V45.999h0.488c0.004,0,0.006,0.002,0.01,0.002c1.103,0,2.001-0.897,2.002-2V44v-4.002
		C45.002,39.445,44.555,38.998,44.002,38.998z M43.002,42.997v0.994c0,0.003-0.002,0.005-0.002,0.008h-2.998v-1.002H43.002z"/>
	<path d="M48.008,38.996c-0.002,0-0.004-0.001-0.006-0.001c-0.001,0-0.001,0-0.002,0s-0.003,0-0.004,0c-0.553,0-1,0.447-1,1
		c0,0.011,0.006,0.019,0.006,0.029v17.979c0,0.553,0.447,1,1,1s1-0.447,1-1v-8.006h2c0.553,0,1-0.447,1-1v-5.996
		C52.002,40.796,50.211,39.003,48.008,38.996z M49.002,41.275c0.595,0.349,1,0.987,1,1.726v4.996h-1V41.275z"/>
	<path d="M47.506,23.318c-0.631-0.205-1.303-0.319-2.002-0.319c-3.584,0-6.5,2.916-6.5,6.5v2.496H32c-0.553,0-1,0.448-1,1v30.004
		c0,0.553,0.447,1,1,1h26.004h4.002c0.553,0,1-0.447,1-1V32.995c0-0.552-0.447-1-1-1h-4.002h-1.996v-2.496
		c0-3.584-2.916-6.5-6.5-6.5C48.809,22.999,48.137,23.113,47.506,23.318z M50.004,31.995h-4.996v-2.496
		c0-1.759,1.023-3.269,2.498-4.009c1.475,0.74,2.498,2.25,2.498,4.009V31.995z M41.004,29.499c0-2.227,1.629-4.067,3.756-4.425
		c-1.083,1.162-1.752,2.715-1.752,4.425v2.496h-2.004V29.499z M61.006,61.999h-2.002V33.995h2.002V61.999z M57.004,61.999H33V33.995
		h24.004V61.999z M54.008,29.499v2.496h-2.004v-2.496c0-1.71-0.669-3.263-1.752-4.425C52.379,25.432,54.008,27.272,54.008,29.499z"
		/>
</g>
</svg>
